index,mean,sd
disc_c_perc_02pm,0.046338028169,0.0131191720797
disc_c_perc_04am,0.0438028169014,0.0169340061232
disc_c_perc_04pm,0.0464788732394,0.0138459474782
disc_c_perc_06pm,0.0467605633803,0.0132852923929
disc_c_perc_08am,0.0446478873239,0.0160206104677
disc_c_perc_08pm,0.046338028169,0.0127883246551
disc_c_perc_11pm,0.0466197183099,0.0133034541134
disc_c_perc_12pm,0.0461971830986,0.0139761222072
rev_c_perc_02pm,0.30661971831,0.0470848371702
rev_c_perc_04am,0.258309859155,0.0643425190566
rev_c_perc_04pm,0.311830985915,0.0460220400353
rev_c_perc_06pm,0.316197183099,0.0461477811627
rev_c_perc_08am,0.272535211268,0.0542933384459
rev_c_perc_08pm,0.318732394366,0.0452273487889
rev_c_perc_11pm,0.317746478873,0.0439544303991
rev_c_perc_12pm,0.302676056338,0.0495971700367
rgm_c_perc_02pm,0.613802816901,0.10455847574
rgm_c_perc_04am,0.511690140845,0.132265813697
rgm_c_perc_04pm,0.626056338028,0.103018429325
rgm_c_perc_06pm,0.63661971831,0.103052603238
rgm_c_perc_08am,0.545352112676,0.1134753716
rgm_c_perc_08pm,0.642957746479,0.0990294958398
rgm_c_perc_11pm,0.644788732394,0.0934246702648
rgm_c_perc_12pm,0.60661971831,0.108218610256
roi_02pm,4.43676056338,1.8769852535
roi_04am,3.46816901408,2.02013882823
roi_04pm,4.59873239437,1.89760369909
roi_06pm,4.70028169014,1.87633455122
roi_08am,3.76028169014,1.87775319528
roi_08pm,4.75774647887,1.88213419681
roi_11pm,4.80718309859,1.89124462654
roi_12pm,4.33985915493,1.75397222079
